{
    "global": {
        "check_for_updates_on_startup": true,
        "show_in_menu_bar": true,
        "show_profile_name_in_menu_bar": false,
        "unsafe_ui": false
    },
    "profiles": [
        {
            "complex_modifications": {
                "parameters": {
                    "basic.simultaneous_threshold_milliseconds": 50,
                    "basic.to_delayed_action_delay_milliseconds": 500,
                    "basic.to_if_alone_timeout_milliseconds": 1000,
                    "basic.to_if_held_down_threshold_milliseconds": 500,
                    "mouse_motion_to_scroll.speed": 100
                },
                "rules": [
                    {
                        "description": "alt+left click -> move left a space ('ctrl+left arrow`)",
                        "manipulators": [
                            {
                                "from": {
                                    "modifiers": {
                                        "mandatory": [
                                            "left_alt"
                                        ]
                                    },
                                    "pointing_button": "button1"
                                },
                                "to": [
                                    {
                                        "key_code": "left_arrow",
                                        "modifiers": [
                                            "left_control"
                                        ]
                                    }
                                ],
                                "type": "basic"
                            }
                        ]
                    },
                    {
                        "description": "alt+right click -> move right a space ('ctrl+left arrow`)",
                        "manipulators": [
                            {
                                "from": {
                                    "modifiers": {
                                        "mandatory": [
                                            "left_alt"
                                        ]
                                    },
                                    "pointing_button": "button2"
                                },
                                "to": [
                                    {
                                        "key_code": "right_arrow",
                                        "modifiers": [
                                            "left_control"
                                        ]
                                    }
                                ],
                                "type": "basic"
                            }
                        ]
                    },
                    {
                        "description": "Change Command+Tab to Control+Tab",
                        "manipulators": [
                            {
                                "from": {
                                    "key_code": "tab",
                                    "modifiers": {
                                        "mandatory": [
                                            "command"
                                        ],
                                        "optional": [
                                            "any"
                                        ]
                                    }
                                },
                                "to": [
                                    {
                                        "key_code": "tab",
                                        "modifiers": [
                                            "control"
                                        ]
                                    }
                                ],
                                "type": "basic"
                            }
                        ]
                    },
                    {
                        "description": "F2 => Return (Rename) (Only in Finder)",
                        "manipulators": [
                            {
                                "conditions": [
                                    {
                                        "bundle_identifiers": [
                                            "^com.apple.finder"
                                        ],
                                        "type": "frontmost_application_if"
                                    }
                                ],
                                "from": {
                                    "key_code": "f2"
                                },
                                "to": [
                                    {
                                        "key_code": "return_or_enter"
                                    }
                                ],
                                "type": "basic"
                            }
                        ]
                    },
                    {
                        "description": "win+L to lock screen + sleep monitors (colemak L, qwerty U)",
                        "manipulators": [
                            {
                                "from": {
                                    "key_code": "u",
                                    "modifiers": {
                                        "mandatory": [
                                            "left_control"
                                        ]
                                    }
                                },
                                "to": [
                                    {
                                        "key_code": "q",
                                        "modifiers": [
                                            "left_control",
                                            "left_command"
                                        ]
                                    },
                                    {
                                        "key_code": "eject",
                                        "modifiers": [
                                            "left_control",
                                            "left_shift"
                                        ]
                                    }
                                ],
                                "type": "basic"
                            }
                        ]
                    },
                    {
                        "description": "Volume Controls (fn + page up/down to volume up/down, fn+home to mute)",
                        "manipulators": [
                            {
                                "from": {
                                    "key_code": "page_up",
                                    "modifiers": {
                                        "mandatory": [
                                            "fn"
                                        ]
                                    }
                                },
                                "to": [
                                    {
                                        "key_code": "volume_increment"
                                    }
                                ],
                                "type": "basic"
                            },
                            {
                                "from": {
                                    "key_code": "page_down",
                                    "modifiers": {
                                        "mandatory": [
                                            "fn"
                                        ]
                                    }
                                },
                                "to": [
                                    {
                                        "key_code": "volume_decrement"
                                    }
                                ],
                                "type": "basic"
                            },
                            {
                                "from": {
                                    "key_code": "home",
                                    "modifiers": {
                                        "mandatory": [
                                            "fn"
                                        ]
                                    }
                                },
                                "to": [
                                    {
                                        "key_code": "mute"
                                    }
                                ],
                                "type": "basic"
                            }
                        ]
                    },
                    {
                        "description": "Media Keys (fn + del/end to previous/next, fn+ins to play/pause)",
                        "manipulators": [
                            {
                                "from": {
                                    "key_code": "delete",
                                    "modifiers": {
                                        "mandatory": [
                                            "fn"
                                        ]
                                    }
                                },
                                "to": [
                                    {
                                        "key_code": "rewind"
                                    }
                                ],
                                "type": "basic"
                            },
                            {
                                "from": {
                                    "key_code": "end",
                                    "modifiers": {
                                        "mandatory": [
                                            "fn"
                                        ]
                                    }
                                },
                                "to": [
                                    {
                                        "key_code": "fastforward"
                                    }
                                ],
                                "type": "basic"
                            },
                            {
                                "from": {
                                    "key_code": "insert",
                                    "modifiers": {
                                        "mandatory": [
                                            "fn"
                                        ]
                                    }
                                },
                                "to": [
                                    {
                                        "key_code": "play_or_pause"
                                    }
                                ],
                                "type": "basic"
                            }
                        ]
                    }
                ]
            },
            "devices": [
                {
                    "disable_built_in_keyboard_if_exists": false,
                    "fn_function_keys": [],
                    "identifiers": {
                        "is_keyboard": true,
                        "is_pointing_device": true,
                        "product_id": 45077,
                        "vendor_id": 1133
                    },
                    "ignore": false,
                    "manipulate_caps_lock_led": true,
                    "simple_modifications": [],
                    "treat_as_built_in_keyboard": false
                },
                {
                    "disable_built_in_keyboard_if_exists": false,
                    "fn_function_keys": [
                        {
                            "from": {
                                "key_code": "f1"
                            },
                            "to": [
                                {
                                    "key_code": "f1"
                                }
                            ]
                        },
                        {
                            "from": {
                                "key_code": "f2"
                            },
                            "to": [
                                {
                                    "key_code": "f2"
                                }
                            ]
                        },
                        {
                            "from": {
                                "key_code": "f3"
                            },
                            "to": [
                                {
                                    "key_code": "f3"
                                }
                            ]
                        },
                        {
                            "from": {
                                "key_code": "f4"
                            },
                            "to": [
                                {
                                    "key_code": "f4"
                                }
                            ]
                        },
                        {
                            "from": {
                                "key_code": "f5"
                            },
                            "to": [
                                {
                                    "key_code": "f5"
                                }
                            ]
                        },
                        {
                            "from": {
                                "key_code": "f6"
                            },
                            "to": [
                                {
                                    "key_code": "f6"
                                }
                            ]
                        },
                        {
                            "from": {
                                "key_code": "f7"
                            },
                            "to": [
                                {
                                    "key_code": "f7"
                                }
                            ]
                        },
                        {
                            "from": {
                                "key_code": "f8"
                            },
                            "to": [
                                {
                                    "key_code": "f8"
                                }
                            ]
                        },
                        {
                            "from": {
                                "key_code": "f9"
                            },
                            "to": [
                                {
                                    "key_code": "f9"
                                }
                            ]
                        },
                        {
                            "from": {
                                "key_code": "f10"
                            },
                            "to": [
                                {
                                    "key_code": "f10"
                                }
                            ]
                        },
                        {
                            "from": {
                                "key_code": "f11"
                            },
                            "to": [
                                {
                                    "key_code": "f11"
                                }
                            ]
                        },
                        {
                            "from": {
                                "key_code": "f12"
                            },
                            "to": [
                                {
                                    "key_code": "f12"
                                }
                            ]
                        }
                    ],
                    "identifiers": {
                        "is_keyboard": true,
                        "is_pointing_device": false,
                        "product_id": 23,
                        "vendor_id": 9494
                    },
                    "ignore": false,
                    "manipulate_caps_lock_led": true,
                    "simple_modifications": [
                        {
                            "from": {
                                "key_code": "caps_lock"
                            },
                            "to": [
                                {
                                    "key_code": "delete_or_backspace"
                                }
                            ]
                        },
                        {
                            "from": {
                                "key_code": "left_command"
                            },
                            "to": [
                                {
                                    "key_code": "left_control"
                                }
                            ]
                        },
                        {
                            "from": {
                                "key_code": "left_control"
                            },
                            "to": [
                                {
                                    "key_code": "left_command"
                                }
                            ]
                        }
                    ],
                    "treat_as_built_in_keyboard": false
                },
                {
                    "disable_built_in_keyboard_if_exists": false,
                    "fn_function_keys": [],
                    "identifiers": {
                        "is_keyboard": true,
                        "is_pointing_device": false,
                        "product_id": 835,
                        "vendor_id": 1452
                    },
                    "ignore": false,
                    "manipulate_caps_lock_led": true,
                    "simple_modifications": [
                        {
                            "from": {
                                "key_code": "caps_lock"
                            },
                            "to": [
                                {
                                    "key_code": "delete_or_backspace"
                                }
                            ]
                        },
                        {
                            "from": {
                                "key_code": "left_command"
                            },
                            "to": [
                                {
                                    "key_code": "left_option"
                                }
                            ]
                        },
                        {
                            "from": {
                                "key_code": "left_control"
                            },
                            "to": [
                                {
                                    "key_code": "left_command"
                                }
                            ]
                        },
                        {
                            "from": {
                                "key_code": "left_option"
                            },
                            "to": [
                                {
                                    "key_code": "right_control"
                                }
                            ]
                        }
                    ],
                    "treat_as_built_in_keyboard": false
                },
                {
                    "disable_built_in_keyboard_if_exists": false,
                    "fn_function_keys": [],
                    "identifiers": {
                        "is_keyboard": true,
                        "is_pointing_device": false,
                        "product_id": 0,
                        "vendor_id": 0
                    },
                    "ignore": false,
                    "manipulate_caps_lock_led": true,
                    "simple_modifications": [
                        {
                            "from": {
                                "key_code": "caps_lock"
                            },
                            "to": [
                                {
                                    "key_code": "delete_or_backspace"
                                }
                            ]
                        },
                        {
                            "from": {
                                "key_code": "left_command"
                            },
                            "to": [
                                {
                                    "key_code": "left_option"
                                }
                            ]
                        },
                        {
                            "from": {
                                "key_code": "left_control"
                            },
                            "to": [
                                {
                                    "key_code": "left_command"
                                }
                            ]
                        },
                        {
                            "from": {
                                "key_code": "left_option"
                            },
                            "to": [
                                {
                                    "key_code": "left_control"
                                }
                            ]
                        }
                    ],
                    "treat_as_built_in_keyboard": false
                },
                {
                    "disable_built_in_keyboard_if_exists": false,
                    "fn_function_keys": [],
                    "identifiers": {
                        "is_keyboard": false,
                        "is_pointing_device": true,
                        "product_id": 0,
                        "vendor_id": 0
                    },
                    "ignore": true,
                    "manipulate_caps_lock_led": false,
                    "simple_modifications": [],
                    "treat_as_built_in_keyboard": false
                },
                {
                    "disable_built_in_keyboard_if_exists": false,
                    "fn_function_keys": [],
                    "identifiers": {
                        "is_keyboard": false,
                        "is_pointing_device": true,
                        "product_id": 9520,
                        "vendor_id": 2362
                    },
                    "ignore": true,
                    "manipulate_caps_lock_led": false,
                    "simple_modifications": [],
                    "treat_as_built_in_keyboard": false
                }
            ],
            "fn_function_keys": [
                {
                    "from": {
                        "key_code": "f1"
                    },
                    "to": [
                        {
                            "consumer_key_code": "display_brightness_decrement"
                        }
                    ]
                },
                {
                    "from": {
                        "key_code": "f2"
                    },
                    "to": [
                        {
                            "consumer_key_code": "display_brightness_increment"
                        }
                    ]
                },
                {
                    "from": {
                        "key_code": "f3"
                    },
                    "to": [
                        {
                            "apple_vendor_keyboard_key_code": "mission_control"
                        }
                    ]
                },
                {
                    "from": {
                        "key_code": "f4"
                    },
                    "to": [
                        {
                            "apple_vendor_keyboard_key_code": "spotlight"
                        }
                    ]
                },
                {
                    "from": {
                        "key_code": "f5"
                    },
                    "to": [
                        {
                            "consumer_key_code": "dictation"
                        }
                    ]
                },
                {
                    "from": {
                        "key_code": "f6"
                    },
                    "to": [
                        {
                            "key_code": "f6"
                        }
                    ]
                },
                {
                    "from": {
                        "key_code": "f7"
                    },
                    "to": [
                        {
                            "consumer_key_code": "rewind"
                        }
                    ]
                },
                {
                    "from": {
                        "key_code": "f8"
                    },
                    "to": [
                        {
                            "consumer_key_code": "play_or_pause"
                        }
                    ]
                },
                {
                    "from": {
                        "key_code": "f9"
                    },
                    "to": [
                        {
                            "consumer_key_code": "fast_forward"
                        }
                    ]
                },
                {
                    "from": {
                        "key_code": "f10"
                    },
                    "to": [
                        {
                            "consumer_key_code": "mute"
                        }
                    ]
                },
                {
                    "from": {
                        "key_code": "f11"
                    },
                    "to": [
                        {
                            "consumer_key_code": "volume_decrement"
                        }
                    ]
                },
                {
                    "from": {
                        "key_code": "f12"
                    },
                    "to": [
                        {
                            "consumer_key_code": "volume_increment"
                        }
                    ]
                }
            ],
            "name": "Default profile",
            "parameters": {
                "delay_milliseconds_before_open_device": 1000
            },
            "selected": true,
            "simple_modifications": [],
            "virtual_hid_keyboard": {
                "country_code": 0,
                "indicate_sticky_modifier_keys_state": true,
                "mouse_key_xy_scale": 100
            }
        }
    ]
}